[INFO ] 2020-09-25 12:17:06 authenticate-log - User login with username : billingOfficer
[ERROR] 2020-09-25 12:17:07 authenticate-log - Username or Password wrong!!!
[INFO ] 2020-09-25 12:17:15 authenticate-log - User login with username : Officer
[INFO ] 2020-09-25 14:44:14 authenticate-log - User login with username : Officer
[INFO ] 2020-09-25 15:23:17 authenticate-log - User login with username : Officer
[INFO ] 2020-09-25 15:39:39 authenticate-log - User login with username : Officer
[INFO ] 2020-09-25 16:07:55 authenticate-log - User login with username : Manager
[INFO ] 2020-09-25 18:13:19 authenticate-log - User login with username : Officer
[INFO ] 2020-09-25 19:28:15 authenticate-log - User login with username : Officer
[INFO ] 2020-09-25 19:30:38 authenticate-log - User login with username : Manager
